|aula-03
V1 <= S1.DB_MAX_OUTPUT_PORT_TYPE
S1 => V1.DATAIN
S1 => inst.IN0
S1 => inst5.IN0
S1 => inst10.IN1
S1 => inst7.IN0
V2 <= inst.DB_MAX_OUTPUT_PORT_TYPE
S2 => inst.IN1
S2 => inst6.IN0
S2 => inst8.IN1
V3 <= inst3.DB_MAX_OUTPUT_PORT_TYPE
S0 => inst4.IN0
S0 => inst9.IN0
A <= inst11.DB_MAX_OUTPUT_PORT_TYPE


