/*
WARNING: Do NOT edit the input and output ports in this file in a text
editor if you plan to continue editing the block that represents it in
the Block Editor! File corruption is VERY likely to occur.
*/
/*
Copyright (C) 2020  Intel Corporation. All rights reserved.
Your use of Intel Corporation's design tools, logic functions 
and other software and tools, and any partner logic 
functions, and any output files from any of the foregoing 
(including device programming or simulation files), and any 
associated documentation or information are expressly subject 
to the terms and conditions of the Intel Program License 
Subscription Agreement, the Intel Quartus Prime License Agreement,
the Intel FPGA IP License Agreement, or other applicable license
agreement, including, without limitation, that your use is for
the sole purpose of programming logic devices manufactured by
Intel and sold by Intel or its authorized distributors.  Please
refer to the applicable agreement for further details, at
https://fpgasoftware.intel.com/eula.
*/
(header "graphic" (version "1.4"))
(pin
	(input)
	(rect 56 128 224 144)
	(text "INPUT" (rect 125 0 153 10)(font "Arial" (font_size 6)))
	(text "S0" (rect 5 0 19 11)(font "Arial" ))
	(pt 168 8)
	(drawing
		(line (pt 84 12)(pt 109 12))
		(line (pt 84 4)(pt 109 4))
		(line (pt 113 8)(pt 168 8))
		(line (pt 84 12)(pt 84 4))
		(line (pt 109 4)(pt 113 8))
		(line (pt 109 12)(pt 113 8))
	)
	(text "VCC" (rect 128 7 148 17)(font "Arial" (font_size 6)))
)
(pin
	(input)
	(rect 56 96 224 112)
	(text "INPUT" (rect 125 0 153 10)(font "Arial" (font_size 6)))
	(text "S1" (rect 5 0 19 13)(font "Intel Clear" ))
	(pt 168 8)
	(drawing
		(line (pt 84 12)(pt 109 12))
		(line (pt 84 4)(pt 109 4))
		(line (pt 113 8)(pt 168 8))
		(line (pt 84 12)(pt 84 4))
		(line (pt 109 4)(pt 113 8))
		(line (pt 109 12)(pt 113 8))
	)
	(text "VCC" (rect 128 7 148 17)(font "Arial" (font_size 6)))
)
(pin
	(input)
	(rect 56 64 224 80)
	(text "INPUT" (rect 125 0 153 10)(font "Arial" (font_size 6)))
	(text "S2" (rect 5 0 20 13)(font "Intel Clear" ))
	(pt 168 8)
	(drawing
		(line (pt 84 12)(pt 109 12))
		(line (pt 84 4)(pt 109 4))
		(line (pt 113 8)(pt 168 8))
		(line (pt 84 12)(pt 84 4))
		(line (pt 109 4)(pt 113 8))
		(line (pt 109 12)(pt 113 8))
	)
	(text "VCC" (rect 128 7 148 17)(font "Arial" (font_size 6)))
)
(pin
	(output)
	(rect 568 96 744 112)
	(text "OUTPUT" (rect 1 0 39 10)(font "Arial" (font_size 6)))
	(text "V1" (rect 90 0 104 11)(font "Arial" ))
	(pt 0 8)
	(drawing
		(line (pt 0 8)(pt 52 8))
		(line (pt 52 4)(pt 78 4))
		(line (pt 52 12)(pt 78 12))
		(line (pt 52 12)(pt 52 4))
		(line (pt 78 4)(pt 82 8))
		(line (pt 82 8)(pt 78 12))
		(line (pt 78 12)(pt 82 8))
	)
)
(pin
	(output)
	(rect 568 152 744 168)
	(text "OUTPUT" (rect 1 0 39 10)(font "Arial" (font_size 6)))
	(text "V2" (rect 90 0 104 11)(font "Arial" ))
	(pt 0 8)
	(drawing
		(line (pt 0 8)(pt 52 8))
		(line (pt 52 4)(pt 78 4))
		(line (pt 52 12)(pt 78 12))
		(line (pt 52 12)(pt 52 4))
		(line (pt 78 4)(pt 82 8))
		(line (pt 82 8)(pt 78 12))
		(line (pt 78 12)(pt 82 8))
	)
)
(pin
	(output)
	(rect 568 256 744 272)
	(text "OUTPUT" (rect 1 0 39 10)(font "Arial" (font_size 6)))
	(text "V3" (rect 90 0 104 11)(font "Arial" ))
	(pt 0 8)
	(drawing
		(line (pt 0 8)(pt 52 8))
		(line (pt 52 4)(pt 78 4))
		(line (pt 52 12)(pt 78 12))
		(line (pt 52 12)(pt 52 4))
		(line (pt 78 4)(pt 82 8))
		(line (pt 82 8)(pt 78 12))
		(line (pt 78 12)(pt 82 8))
	)
)
(pin
	(output)
	(rect 568 416 744 432)
	(text "OUTPUT" (rect 1 0 39 10)(font "Arial" (font_size 6)))
	(text "A" (rect 90 0 99 11)(font "Arial" ))
	(pt 0 8)
	(drawing
		(line (pt 0 8)(pt 52 8))
		(line (pt 52 4)(pt 78 4))
		(line (pt 52 12)(pt 78 12))
		(line (pt 52 12)(pt 52 4))
		(line (pt 78 4)(pt 82 8))
		(line (pt 82 8)(pt 78 12))
		(line (pt 78 12)(pt 82 8))
	)
)
(symbol
	(rect 320 136 384 184)
	(text "AND2" (rect 1 0 28 10)(font "Arial" (font_size 6)))
	(text "inst" (rect 3 37 20 48)(font "Arial" ))
	(port
		(pt 0 16)
		(input)
		(text "IN1" (rect 2 7 22 18)(font "Courier New" (bold))(invisible))
		(text "IN1" (rect 2 7 22 18)(font "Courier New" (bold))(invisible))
		(line (pt 0 16)(pt 14 16))
	)
	(port
		(pt 0 32)
		(input)
		(text "IN2" (rect 2 23 22 34)(font "Courier New" (bold))(invisible))
		(text "IN2" (rect 2 23 22 34)(font "Courier New" (bold))(invisible))
		(line (pt 0 32)(pt 14 32))
	)
	(port
		(pt 64 24)
		(output)
		(text "OUT" (rect 48 15 68 26)(font "Courier New" (bold))(invisible))
		(text "OUT" (rect 48 15 68 26)(font "Courier New" (bold))(invisible))
		(line (pt 42 24)(pt 64 24))
	)
	(drawing
		(line (pt 14 12)(pt 30 12))
		(line (pt 14 37)(pt 31 37))
		(line (pt 14 12)(pt 14 37))
		(arc (pt 31 37)(pt 30 12)(rect 18 12 43 37))
	)
)
(symbol
	(rect 368 216 432 264)
	(text "AND2" (rect 1 0 28 10)(font "Arial" (font_size 6)))
	(text "inst2" (rect 3 37 27 50)(font "Intel Clear" ))
	(port
		(pt 0 16)
		(input)
		(text "IN1" (rect 2 7 22 18)(font "Courier New" (bold))(invisible))
		(text "IN1" (rect 2 7 22 18)(font "Courier New" (bold))(invisible))
		(line (pt 0 16)(pt 14 16))
	)
	(port
		(pt 0 32)
		(input)
		(text "IN2" (rect 2 23 22 34)(font "Courier New" (bold))(invisible))
		(text "IN2" (rect 2 23 22 34)(font "Courier New" (bold))(invisible))
		(line (pt 0 32)(pt 14 32))
	)
	(port
		(pt 64 24)
		(output)
		(text "OUT" (rect 48 15 68 26)(font "Courier New" (bold))(invisible))
		(text "OUT" (rect 48 15 68 26)(font "Courier New" (bold))(invisible))
		(line (pt 42 24)(pt 64 24))
	)
	(drawing
		(line (pt 14 12)(pt 30 12))
		(line (pt 14 37)(pt 31 37))
		(line (pt 14 12)(pt 14 37))
		(arc (pt 31 37)(pt 30 12)(rect 18 12 43 37))
	)
)
(symbol
	(rect 464 240 528 288)
	(text "AND2" (rect 1 0 28 10)(font "Arial" (font_size 6)))
	(text "inst3" (rect 3 37 27 50)(font "Intel Clear" ))
	(port
		(pt 0 16)
		(input)
		(text "IN1" (rect 2 7 22 18)(font "Courier New" (bold))(invisible))
		(text "IN1" (rect 2 7 22 18)(font "Courier New" (bold))(invisible))
		(line (pt 0 16)(pt 14 16))
	)
	(port
		(pt 0 32)
		(input)
		(text "IN2" (rect 2 23 22 34)(font "Courier New" (bold))(invisible))
		(text "IN2" (rect 2 23 22 34)(font "Courier New" (bold))(invisible))
		(line (pt 0 32)(pt 14 32))
	)
	(port
		(pt 64 24)
		(output)
		(text "OUT" (rect 48 15 68 26)(font "Courier New" (bold))(invisible))
		(text "OUT" (rect 48 15 68 26)(font "Courier New" (bold))(invisible))
		(line (pt 42 24)(pt 64 24))
	)
	(drawing
		(line (pt 14 12)(pt 30 12))
		(line (pt 14 37)(pt 31 37))
		(line (pt 14 12)(pt 14 37))
		(arc (pt 31 37)(pt 30 12)(rect 18 12 43 37))
	)
)
(symbol
	(rect 288 200 336 232)
	(text "NOT" (rect 1 0 21 10)(font "Arial" (font_size 6)))
	(text "inst4" (rect 3 21 27 34)(font "Intel Clear" ))
	(port
		(pt 0 16)
		(input)
		(text "IN" (rect 2 7 16 18)(font "Courier New" (bold))(invisible))
		(text "IN" (rect 2 7 16 18)(font "Courier New" (bold))(invisible))
		(line (pt 0 16)(pt 13 16))
	)
	(port
		(pt 48 16)
		(output)
		(text "OUT" (rect 32 7 52 18)(font "Courier New" (bold))(invisible))
		(text "OUT" (rect 32 7 52 18)(font "Courier New" (bold))(invisible))
		(line (pt 39 16)(pt 48 16))
	)
	(drawing
		(line (pt 13 25)(pt 13 7))
		(line (pt 13 7)(pt 31 16))
		(line (pt 13 25)(pt 31 16))
		(circle (rect 31 12 39 20))
	)
)
(symbol
	(rect 288 248 336 280)
	(text "NOT" (rect 1 0 21 10)(font "Arial" (font_size 6)))
	(text "inst5" (rect 3 21 27 34)(font "Intel Clear" ))
	(port
		(pt 0 16)
		(input)
		(text "IN" (rect 2 7 16 18)(font "Courier New" (bold))(invisible))
		(text "IN" (rect 2 7 16 18)(font "Courier New" (bold))(invisible))
		(line (pt 0 16)(pt 13 16))
	)
	(port
		(pt 48 16)
		(output)
		(text "OUT" (rect 32 7 52 18)(font "Courier New" (bold))(invisible))
		(text "OUT" (rect 32 7 52 18)(font "Courier New" (bold))(invisible))
		(line (pt 39 16)(pt 48 16))
	)
	(drawing
		(line (pt 13 25)(pt 13 7))
		(line (pt 13 7)(pt 31 16))
		(line (pt 13 25)(pt 31 16))
		(circle (rect 31 12 39 20))
	)
)
(symbol
	(rect 288 296 336 328)
	(text "NOT" (rect 1 0 21 10)(font "Arial" (font_size 6)))
	(text "inst6" (rect 3 21 27 34)(font "Intel Clear" ))
	(port
		(pt 0 16)
		(input)
		(text "IN" (rect 2 7 16 18)(font "Courier New" (bold))(invisible))
		(text "IN" (rect 2 7 16 18)(font "Courier New" (bold))(invisible))
		(line (pt 0 16)(pt 13 16))
	)
	(port
		(pt 48 16)
		(output)
		(text "OUT" (rect 32 7 52 18)(font "Courier New" (bold))(invisible))
		(text "OUT" (rect 32 7 52 18)(font "Courier New" (bold))(invisible))
		(line (pt 39 16)(pt 48 16))
	)
	(drawing
		(line (pt 13 25)(pt 13 7))
		(line (pt 13 7)(pt 31 16))
		(line (pt 13 25)(pt 31 16))
		(circle (rect 31 12 39 20))
	)
)
(symbol
	(rect 288 352 336 384)
	(text "NOT" (rect 1 0 21 10)(font "Arial" (font_size 6)))
	(text "inst7" (rect 3 21 27 34)(font "Intel Clear" ))
	(port
		(pt 0 16)
		(input)
		(text "IN" (rect 2 7 16 18)(font "Courier New" (bold))(invisible))
		(text "IN" (rect 2 7 16 18)(font "Courier New" (bold))(invisible))
		(line (pt 0 16)(pt 13 16))
	)
	(port
		(pt 48 16)
		(output)
		(text "OUT" (rect 32 7 52 18)(font "Courier New" (bold))(invisible))
		(text "OUT" (rect 32 7 52 18)(font "Courier New" (bold))(invisible))
		(line (pt 39 16)(pt 48 16))
	)
	(drawing
		(line (pt 13 25)(pt 13 7))
		(line (pt 13 7)(pt 31 16))
		(line (pt 13 25)(pt 31 16))
		(circle (rect 31 12 39 20))
	)
)
(symbol
	(rect 368 360 432 408)
	(text "AND2" (rect 1 0 28 10)(font "Arial" (font_size 6)))
	(text "inst8" (rect 3 37 27 50)(font "Intel Clear" ))
	(port
		(pt 0 16)
		(input)
		(text "IN1" (rect 2 7 22 18)(font "Courier New" (bold))(invisible))
		(text "IN1" (rect 2 7 22 18)(font "Courier New" (bold))(invisible))
		(line (pt 0 16)(pt 14 16))
	)
	(port
		(pt 0 32)
		(input)
		(text "IN2" (rect 2 23 22 34)(font "Courier New" (bold))(invisible))
		(text "IN2" (rect 2 23 22 34)(font "Courier New" (bold))(invisible))
		(line (pt 0 32)(pt 14 32))
	)
	(port
		(pt 64 24)
		(output)
		(text "OUT" (rect 48 15 68 26)(font "Courier New" (bold))(invisible))
		(text "OUT" (rect 48 15 68 26)(font "Courier New" (bold))(invisible))
		(line (pt 42 24)(pt 64 24))
	)
	(drawing
		(line (pt 14 12)(pt 30 12))
		(line (pt 14 37)(pt 31 37))
		(line (pt 14 12)(pt 14 37))
		(arc (pt 31 37)(pt 30 12)(rect 18 12 43 37))
	)
)
(symbol
	(rect 288 424 336 456)
	(text "NOT" (rect 1 0 21 10)(font "Arial" (font_size 6)))
	(text "inst9" (rect 3 21 27 34)(font "Intel Clear" ))
	(port
		(pt 0 16)
		(input)
		(text "IN" (rect 2 7 16 18)(font "Courier New" (bold))(invisible))
		(text "IN" (rect 2 7 16 18)(font "Courier New" (bold))(invisible))
		(line (pt 0 16)(pt 13 16))
	)
	(port
		(pt 48 16)
		(output)
		(text "OUT" (rect 32 7 52 18)(font "Courier New" (bold))(invisible))
		(text "OUT" (rect 32 7 52 18)(font "Courier New" (bold))(invisible))
		(line (pt 39 16)(pt 48 16))
	)
	(drawing
		(line (pt 13 25)(pt 13 7))
		(line (pt 13 7)(pt 31 16))
		(line (pt 13 25)(pt 31 16))
		(circle (rect 31 12 39 20))
	)
)
(symbol
	(rect 368 432 432 480)
	(text "AND2" (rect 1 0 28 10)(font "Arial" (font_size 6)))
	(text "inst10" (rect 3 37 34 50)(font "Intel Clear" ))
	(port
		(pt 0 16)
		(input)
		(text "IN1" (rect 2 7 22 18)(font "Courier New" (bold))(invisible))
		(text "IN1" (rect 2 7 22 18)(font "Courier New" (bold))(invisible))
		(line (pt 0 16)(pt 14 16))
	)
	(port
		(pt 0 32)
		(input)
		(text "IN2" (rect 2 23 22 34)(font "Courier New" (bold))(invisible))
		(text "IN2" (rect 2 23 22 34)(font "Courier New" (bold))(invisible))
		(line (pt 0 32)(pt 14 32))
	)
	(port
		(pt 64 24)
		(output)
		(text "OUT" (rect 48 15 68 26)(font "Courier New" (bold))(invisible))
		(text "OUT" (rect 48 15 68 26)(font "Courier New" (bold))(invisible))
		(line (pt 42 24)(pt 64 24))
	)
	(drawing
		(line (pt 14 12)(pt 30 12))
		(line (pt 14 37)(pt 31 37))
		(line (pt 14 12)(pt 14 37))
		(arc (pt 31 37)(pt 30 12)(rect 18 12 43 37))
	)
)
(symbol
	(rect 464 400 528 448)
	(text "OR2" (rect 1 0 22 10)(font "Arial" (font_size 6)))
	(text "inst11" (rect 3 37 32 48)(font "Arial" ))
	(port
		(pt 0 32)
		(input)
		(text "IN2" (rect 2 23 22 34)(font "Courier New" (bold))(invisible))
		(text "IN2" (rect 2 23 22 34)(font "Courier New" (bold))(invisible))
		(line (pt 0 32)(pt 15 32))
	)
	(port
		(pt 0 16)
		(input)
		(text "IN1" (rect 2 7 22 18)(font "Courier New" (bold))(invisible))
		(text "IN1" (rect 2 7 22 18)(font "Courier New" (bold))(invisible))
		(line (pt 0 16)(pt 15 16))
	)
	(port
		(pt 64 24)
		(output)
		(text "OUT" (rect 48 15 68 26)(font "Courier New" (bold))(invisible))
		(text "OUT" (rect 48 15 68 26)(font "Courier New" (bold))(invisible))
		(line (pt 48 24)(pt 64 24))
	)
	(drawing
		(line (pt 14 36)(pt 25 36))
		(line (pt 14 13)(pt 25 13))
		(arc (pt 7 29)(pt 7 19)(rect -14 8 19 41))
		(arc (pt 49 24)(pt 25 13)(rect -6 13 57 76))
		(arc (pt 25 35)(pt 49 24)(rect -6 -27 57 36))
	)
)
(connector
	(pt 224 136)
	(pt 240 136)
)
(connector
	(pt 224 72)
	(pt 272 72)
)
(connector
	(pt 320 152)
	(pt 256 152)
)
(connector
	(pt 256 104)
	(pt 256 152)
)
(connector
	(pt 320 168)
	(pt 272 168)
)
(connector
	(pt 272 72)
	(pt 272 168)
)
(connector
	(pt 224 104)
	(pt 256 104)
)
(connector
	(pt 256 104)
	(pt 568 104)
)
(connector
	(pt 384 160)
	(pt 568 160)
)
(connector
	(pt 336 216)
	(pt 352 216)
)
(connector
	(pt 352 216)
	(pt 352 232)
)
(connector
	(pt 352 232)
	(pt 368 232)
)
(connector
	(pt 336 264)
	(pt 352 264)
)
(connector
	(pt 352 264)
	(pt 352 248)
)
(connector
	(pt 352 248)
	(pt 368 248)
)
(connector
	(pt 336 312)
	(pt 352 312)
)
(connector
	(pt 352 312)
	(pt 352 272)
)
(connector
	(pt 352 272)
	(pt 464 272)
)
(connector
	(pt 432 240)
	(pt 448 240)
)
(connector
	(pt 448 240)
	(pt 448 256)
)
(connector
	(pt 448 256)
	(pt 464 256)
)
(connector
	(pt 528 264)
	(pt 568 264)
)
(connector
	(pt 240 216)
	(pt 288 216)
)
(connector
	(pt 240 136)
	(pt 240 216)
)
(connector
	(pt 256 264)
	(pt 288 264)
)
(connector
	(pt 256 152)
	(pt 256 264)
)
(connector
	(pt 272 312)
	(pt 288 312)
)
(connector
	(pt 272 168)
	(pt 272 312)
)
(connector
	(pt 256 368)
	(pt 288 368)
)
(connector
	(pt 256 264)
	(pt 256 368)
)
(connector
	(pt 272 392)
	(pt 368 392)
)
(connector
	(pt 272 312)
	(pt 272 392)
)
(connector
	(pt 272 392)
	(pt 272 512)
)
(connector
	(pt 336 368)
	(pt 352 368)
)
(connector
	(pt 352 368)
	(pt 352 376)
)
(connector
	(pt 352 376)
	(pt 368 376)
)
(connector
	(pt 352 440)
	(pt 352 448)
)
(connector
	(pt 352 448)
	(pt 368 448)
)
(connector
	(pt 336 440)
	(pt 352 440)
)
(connector
	(pt 240 440)
	(pt 288 440)
)
(connector
	(pt 240 216)
	(pt 240 440)
)
(connector
	(pt 240 440)
	(pt 240 512)
)
(connector
	(pt 256 464)
	(pt 368 464)
)
(connector
	(pt 256 368)
	(pt 256 464)
)
(connector
	(pt 256 464)
	(pt 256 512)
)
(connector
	(pt 432 384)
	(pt 448 384)
)
(connector
	(pt 448 384)
	(pt 448 416)
)
(connector
	(pt 448 416)
	(pt 464 416)
)
(connector
	(pt 432 456)
	(pt 448 456)
)
(connector
	(pt 448 456)
	(pt 448 432)
)
(connector
	(pt 448 432)
	(pt 464 432)
)
(connector
	(pt 528 424)
	(pt 568 424)
)
(junction (pt 256 104))
(junction (pt 256 152))
(junction (pt 272 168))
(junction (pt 240 216))
(junction (pt 256 264))
(junction (pt 272 312))
(junction (pt 256 368))
(junction (pt 272 392))
(junction (pt 240 440))
(junction (pt 256 464))
