Fitter Status : Successful - Wed May 26 17:12:31 2021
Quartus Prime Version : 20.1.1 Build 720 11/11/2020 SJ Lite Edition
Revision Name : aula-05-display-de-7-segmentos
Top-level Entity Name : aula-05-display-de-7-segmentos
Family : Cyclone V
Device : 5CEBA4F23C7
Timing Models : Final
Logic utilization (in ALMs) : 4 / 18,480 ( < 1 % )
Total registers : 0
Total pins : 11 / 224 ( 5 % )
Total virtual pins : 0
Total block memory bits : 0 / 3,153,920 ( 0 % )
Total RAM Blocks : 0 / 308 ( 0 % )
Total DSP Blocks : 0 / 66 ( 0 % )
Total HSSI RX PCSs : 0
Total HSSI PMA RX Deserializers : 0
Total HSSI TX PCSs : 0
Total HSSI PMA TX Serializers : 0
Total PLLs : 0 / 4 ( 0 % )
Total DLLs : 0 / 4 ( 0 % )
