/*
WARNING: Do NOT edit the input and output ports in this file in a text
editor if you plan to continue editing the block that represents it in
the Block Editor! File corruption is VERY likely to occur.
*/
/*
Copyright (C) 2020  Intel Corporation. All rights reserved.
Your use of Intel Corporation's design tools, logic functions 
and other software and tools, and any partner logic 
functions, and any output files from any of the foregoing 
(including device programming or simulation files), and any 
associated documentation or information are expressly subject 
to the terms and conditions of the Intel Program License 
Subscription Agreement, the Intel Quartus Prime License Agreement,
the Intel FPGA IP License Agreement, or other applicable license
agreement, including, without limitation, that your use is for
the sole purpose of programming logic devices manufactured by
Intel and sold by Intel or its authorized distributors.  Please
refer to the applicable agreement for further details, at
https://fpgasoftware.intel.com/eula.
*/
(header "graphic" (version "1.4"))
(pin
	(input)
	(rect 320 144 488 160)
	(text "INPUT" (rect 125 0 153 10)(font "Arial" (font_size 6)))
	(text "B" (rect 5 0 13 11)(font "Arial" ))
	(pt 168 8)
	(drawing
		(line (pt 84 12)(pt 109 12))
		(line (pt 84 4)(pt 109 4))
		(line (pt 113 8)(pt 168 8))
		(line (pt 84 12)(pt 84 4))
		(line (pt 109 4)(pt 113 8))
		(line (pt 109 12)(pt 113 8))
	)
	(text "VCC" (rect 128 7 148 17)(font "Arial" (font_size 6)))
)
(pin
	(input)
	(rect 320 176 488 192)
	(text "INPUT" (rect 125 0 153 10)(font "Arial" (font_size 6)))
	(text "A" (rect 5 0 13 13)(font "Intel Clear" ))
	(pt 168 8)
	(drawing
		(line (pt 84 12)(pt 109 12))
		(line (pt 84 4)(pt 109 4))
		(line (pt 113 8)(pt 168 8))
		(line (pt 84 12)(pt 84 4))
		(line (pt 109 4)(pt 113 8))
		(line (pt 109 12)(pt 113 8))
	)
	(text "VCC" (rect 128 7 148 17)(font "Arial" (font_size 6)))
)
(pin
	(input)
	(rect 320 208 488 224)
	(text "INPUT" (rect 125 0 153 10)(font "Arial" (font_size 6)))
	(text "Te" (rect 5 0 17 13)(font "Intel Clear" ))
	(pt 168 8)
	(drawing
		(line (pt 84 12)(pt 109 12))
		(line (pt 84 4)(pt 109 4))
		(line (pt 113 8)(pt 168 8))
		(line (pt 84 12)(pt 84 4))
		(line (pt 109 4)(pt 113 8))
		(line (pt 109 12)(pt 113 8))
	)
	(text "VCC" (rect 128 7 148 17)(font "Arial" (font_size 6)))
)
(pin
	(output)
	(rect 864 192 1040 208)
	(text "OUTPUT" (rect 1 0 39 10)(font "Arial" (font_size 6)))
	(text "S" (rect 90 0 98 11)(font "Arial" ))
	(pt 0 8)
	(drawing
		(line (pt 0 8)(pt 52 8))
		(line (pt 52 4)(pt 78 4))
		(line (pt 52 12)(pt 78 12))
		(line (pt 52 12)(pt 52 4))
		(line (pt 78 4)(pt 82 8))
		(line (pt 82 8)(pt 78 12))
		(line (pt 78 12)(pt 82 8))
	)
)
(pin
	(output)
	(rect 864 360 1040 376)
	(text "OUTPUT" (rect 1 0 39 10)(font "Arial" (font_size 6)))
	(text "Ts" (rect 90 0 102 11)(font "Arial" ))
	(pt 0 8)
	(drawing
		(line (pt 0 8)(pt 52 8))
		(line (pt 52 4)(pt 78 4))
		(line (pt 52 12)(pt 78 12))
		(line (pt 52 12)(pt 52 4))
		(line (pt 78 4)(pt 82 8))
		(line (pt 82 8)(pt 78 12))
		(line (pt 78 12)(pt 82 8))
	)
)
(symbol
	(rect 560 152 624 200)
	(text "XOR" (rect 1 0 22 10)(font "Arial" (font_size 6)))
	(text "inst" (rect 3 37 20 48)(font "Arial" ))
	(port
		(pt 0 16)
		(input)
		(text "IN1" (rect 2 7 22 18)(font "Courier New" (bold))(invisible))
		(text "IN1" (rect 2 7 22 18)(font "Courier New" (bold))(invisible))
		(line (pt 0 16)(pt 11 16))
	)
	(port
		(pt 0 32)
		(input)
		(text "IN2" (rect 2 23 22 34)(font "Courier New" (bold))(invisible))
		(text "IN2" (rect 2 23 22 34)(font "Courier New" (bold))(invisible))
		(line (pt 0 32)(pt 11 32))
	)
	(port
		(pt 64 24)
		(output)
		(text "OUT" (rect 48 15 68 26)(font "Courier New" (bold))(invisible))
		(text "OUT" (rect 48 15 68 26)(font "Courier New" (bold))(invisible))
		(line (pt 49 24)(pt 64 24))
	)
	(drawing
		(line (pt 14 13)(pt 25 13))
		(line (pt 14 36)(pt 25 36))
		(arc (pt 7 29)(pt 7 19)(rect -14 8 19 41))
		(arc (pt 49 24)(pt 25 13)(rect -6 13 57 76))
		(arc (pt 25 35)(pt 49 24)(rect -6 -27 57 36))
		(arc (pt 8 36)(pt 8 12)(rect -21 7 14 42))
	)
)
(symbol
	(rect 592 296 656 344)
	(text "OR2" (rect 1 0 22 10)(font "Arial" (font_size 6)))
	(text "inst2" (rect 3 37 27 50)(font "Intel Clear" ))
	(port
		(pt 0 32)
		(input)
		(text "IN2" (rect 2 23 22 34)(font "Courier New" (bold))(invisible))
		(text "IN2" (rect 2 23 22 34)(font "Courier New" (bold))(invisible))
		(line (pt 0 32)(pt 15 32))
	)
	(port
		(pt 0 16)
		(input)
		(text "IN1" (rect 2 7 22 18)(font "Courier New" (bold))(invisible))
		(text "IN1" (rect 2 7 22 18)(font "Courier New" (bold))(invisible))
		(line (pt 0 16)(pt 15 16))
	)
	(port
		(pt 64 24)
		(output)
		(text "OUT" (rect 48 15 68 26)(font "Courier New" (bold))(invisible))
		(text "OUT" (rect 48 15 68 26)(font "Courier New" (bold))(invisible))
		(line (pt 48 24)(pt 64 24))
	)
	(drawing
		(line (pt 14 36)(pt 25 36))
		(line (pt 14 13)(pt 25 13))
		(arc (pt 7 29)(pt 7 19)(rect -14 8 19 41))
		(arc (pt 49 24)(pt 25 13)(rect -6 13 57 76))
		(arc (pt 25 35)(pt 49 24)(rect -6 -27 57 36))
	)
)
(symbol
	(rect 688 320 752 368)
	(text "AND2" (rect 1 0 28 10)(font "Arial" (font_size 6)))
	(text "inst3" (rect 3 37 27 50)(font "Intel Clear" ))
	(port
		(pt 0 16)
		(input)
		(text "IN1" (rect 2 7 22 18)(font "Courier New" (bold))(invisible))
		(text "IN1" (rect 2 7 22 18)(font "Courier New" (bold))(invisible))
		(line (pt 0 16)(pt 14 16))
	)
	(port
		(pt 0 32)
		(input)
		(text "IN2" (rect 2 23 22 34)(font "Courier New" (bold))(invisible))
		(text "IN2" (rect 2 23 22 34)(font "Courier New" (bold))(invisible))
		(line (pt 0 32)(pt 14 32))
	)
	(port
		(pt 64 24)
		(output)
		(text "OUT" (rect 48 15 68 26)(font "Courier New" (bold))(invisible))
		(text "OUT" (rect 48 15 68 26)(font "Courier New" (bold))(invisible))
		(line (pt 42 24)(pt 64 24))
	)
	(drawing
		(line (pt 14 12)(pt 30 12))
		(line (pt 14 37)(pt 31 37))
		(line (pt 14 12)(pt 14 37))
		(arc (pt 31 37)(pt 30 12)(rect 18 12 43 37))
	)
)
(symbol
	(rect 592 368 656 416)
	(text "AND2" (rect 1 0 28 10)(font "Arial" (font_size 6)))
	(text "inst4" (rect 3 37 27 50)(font "Intel Clear" ))
	(port
		(pt 0 16)
		(input)
		(text "IN1" (rect 2 7 22 18)(font "Courier New" (bold))(invisible))
		(text "IN1" (rect 2 7 22 18)(font "Courier New" (bold))(invisible))
		(line (pt 0 16)(pt 14 16))
	)
	(port
		(pt 0 32)
		(input)
		(text "IN2" (rect 2 23 22 34)(font "Courier New" (bold))(invisible))
		(text "IN2" (rect 2 23 22 34)(font "Courier New" (bold))(invisible))
		(line (pt 0 32)(pt 14 32))
	)
	(port
		(pt 64 24)
		(output)
		(text "OUT" (rect 48 15 68 26)(font "Courier New" (bold))(invisible))
		(text "OUT" (rect 48 15 68 26)(font "Courier New" (bold))(invisible))
		(line (pt 42 24)(pt 64 24))
	)
	(drawing
		(line (pt 14 12)(pt 30 12))
		(line (pt 14 37)(pt 31 37))
		(line (pt 14 12)(pt 14 37))
		(arc (pt 31 37)(pt 30 12)(rect 18 12 43 37))
	)
)
(symbol
	(rect 776 344 840 392)
	(text "OR2" (rect 1 0 22 10)(font "Arial" (font_size 6)))
	(text "inst5" (rect 3 37 27 50)(font "Intel Clear" ))
	(port
		(pt 0 32)
		(input)
		(text "IN2" (rect 2 23 22 34)(font "Courier New" (bold))(invisible))
		(text "IN2" (rect 2 23 22 34)(font "Courier New" (bold))(invisible))
		(line (pt 0 32)(pt 15 32))
	)
	(port
		(pt 0 16)
		(input)
		(text "IN1" (rect 2 7 22 18)(font "Courier New" (bold))(invisible))
		(text "IN1" (rect 2 7 22 18)(font "Courier New" (bold))(invisible))
		(line (pt 0 16)(pt 15 16))
	)
	(port
		(pt 64 24)
		(output)
		(text "OUT" (rect 48 15 68 26)(font "Courier New" (bold))(invisible))
		(text "OUT" (rect 48 15 68 26)(font "Courier New" (bold))(invisible))
		(line (pt 48 24)(pt 64 24))
	)
	(drawing
		(line (pt 14 36)(pt 25 36))
		(line (pt 14 13)(pt 25 13))
		(arc (pt 7 29)(pt 7 19)(rect -14 8 19 41))
		(arc (pt 49 24)(pt 25 13)(rect -6 13 57 76))
		(arc (pt 25 35)(pt 49 24)(rect -6 -27 57 36))
	)
)
(symbol
	(rect 536 384 584 416)
	(text "NOT" (rect 1 0 21 10)(font "Arial" (font_size 6)))
	(text "inst6" (rect 3 21 27 34)(font "Intel Clear" ))
	(port
		(pt 0 16)
		(input)
		(text "IN" (rect 2 7 16 18)(font "Courier New" (bold))(invisible))
		(text "IN" (rect 2 7 16 18)(font "Courier New" (bold))(invisible))
		(line (pt 0 16)(pt 13 16))
	)
	(port
		(pt 48 16)
		(output)
		(text "OUT" (rect 32 7 52 18)(font "Courier New" (bold))(invisible))
		(text "OUT" (rect 32 7 52 18)(font "Courier New" (bold))(invisible))
		(line (pt 39 16)(pt 48 16))
	)
	(drawing
		(line (pt 13 25)(pt 13 7))
		(line (pt 13 7)(pt 31 16))
		(line (pt 13 25)(pt 31 16))
		(circle (rect 31 12 39 20))
	)
)
(symbol
	(rect 536 312 584 344)
	(text "NOT" (rect 1 0 21 10)(font "Arial" (font_size 6)))
	(text "inst7" (rect 3 21 27 34)(font "Intel Clear" ))
	(port
		(pt 0 16)
		(input)
		(text "IN" (rect 2 7 16 18)(font "Courier New" (bold))(invisible))
		(text "IN" (rect 2 7 16 18)(font "Courier New" (bold))(invisible))
		(line (pt 0 16)(pt 13 16))
	)
	(port
		(pt 48 16)
		(output)
		(text "OUT" (rect 32 7 52 18)(font "Courier New" (bold))(invisible))
		(text "OUT" (rect 32 7 52 18)(font "Courier New" (bold))(invisible))
		(line (pt 39 16)(pt 48 16))
	)
	(drawing
		(line (pt 13 25)(pt 13 7))
		(line (pt 13 7)(pt 31 16))
		(line (pt 13 25)(pt 31 16))
		(circle (rect 31 12 39 20))
	)
)
(symbol
	(rect 696 176 760 224)
	(text "XOR" (rect 1 0 22 10)(font "Arial" (font_size 6)))
	(text "inst8" (rect 3 37 27 50)(font "Intel Clear" ))
	(port
		(pt 0 16)
		(input)
		(text "IN1" (rect 2 7 22 18)(font "Courier New" (bold))(invisible))
		(text "IN1" (rect 2 7 22 18)(font "Courier New" (bold))(invisible))
		(line (pt 0 16)(pt 11 16))
	)
	(port
		(pt 0 32)
		(input)
		(text "IN2" (rect 2 23 22 34)(font "Courier New" (bold))(invisible))
		(text "IN2" (rect 2 23 22 34)(font "Courier New" (bold))(invisible))
		(line (pt 0 32)(pt 11 32))
	)
	(port
		(pt 64 24)
		(output)
		(text "OUT" (rect 48 15 68 26)(font "Courier New" (bold))(invisible))
		(text "OUT" (rect 48 15 68 26)(font "Courier New" (bold))(invisible))
		(line (pt 49 24)(pt 64 24))
	)
	(drawing
		(line (pt 14 13)(pt 25 13))
		(line (pt 14 36)(pt 25 36))
		(arc (pt 7 29)(pt 7 19)(rect -14 8 19 41))
		(arc (pt 49 24)(pt 25 13)(rect -6 13 57 76))
		(arc (pt 25 35)(pt 49 24)(rect -6 -27 57 36))
		(arc (pt 8 36)(pt 8 12)(rect -21 7 14 42))
	)
)
(connector
	(pt 528 168)
	(pt 560 168)
)
(connector
	(pt 488 152)
	(pt 528 152)
)
(connector
	(pt 656 320)
	(pt 672 320)
)
(connector
	(pt 672 320)
	(pt 672 336)
)
(connector
	(pt 768 360)
	(pt 768 344)
)
(connector
	(pt 752 344)
	(pt 768 344)
)
(connector
	(pt 680 376)
	(pt 680 392)
)
(connector
	(pt 656 392)
	(pt 680 392)
)
(connector
	(pt 776 360)
	(pt 768 360)
)
(connector
	(pt 776 376)
	(pt 680 376)
)
(connector
	(pt 528 312)
	(pt 592 312)
)
(connector
	(pt 672 336)
	(pt 688 336)
)
(connector
	(pt 496 352)
	(pt 688 352)
)
(connector
	(pt 528 384)
	(pt 592 384)
)
(connector
	(pt 536 400)
	(pt 512 400)
)
(connector
	(pt 592 400)
	(pt 584 400)
)
(connector
	(pt 536 328)
	(pt 512 328)
)
(connector
	(pt 592 328)
	(pt 584 328)
)
(connector
	(pt 840 368)
	(pt 864 368)
)
(connector
	(pt 624 176)
	(pt 640 176)
)
(connector
	(pt 640 176)
	(pt 640 192)
)
(connector
	(pt 496 216)
	(pt 496 352)
)
(connector
	(pt 696 208)
	(pt 640 208)
)
(connector
	(pt 640 208)
	(pt 640 216)
)
(connector
	(pt 696 192)
	(pt 640 192)
)
(connector
	(pt 760 200)
	(pt 864 200)
)
(connector
	(pt 488 184)
	(pt 512 184)
)
(connector
	(pt 512 184)
	(pt 560 184)
)
(connector
	(pt 512 184)
	(pt 512 328)
)
(connector
	(pt 512 328)
	(pt 512 400)
)
(connector
	(pt 528 152)
	(pt 528 168)
)
(connector
	(pt 528 168)
	(pt 528 312)
)
(connector
	(pt 528 312)
	(pt 528 384)
)
(connector
	(pt 488 216)
	(pt 496 216)
)
(connector
	(pt 496 216)
	(pt 640 216)
)
(junction (pt 512 328))
(junction (pt 512 184))
(junction (pt 528 168))
(junction (pt 528 312))
(junction (pt 496 216))
