/*
WARNING: Do NOT edit the input and output ports in this file in a text
editor if you plan to continue editing the block that represents it in
the Block Editor! File corruption is VERY likely to occur.
*/
/*
Copyright (C) 2020  Intel Corporation. All rights reserved.
Your use of Intel Corporation's design tools, logic functions 
and other software and tools, and any partner logic 
functions, and any output files from any of the foregoing 
(including device programming or simulation files), and any 
associated documentation or information are expressly subject 
to the terms and conditions of the Intel Program License 
Subscription Agreement, the Intel Quartus Prime License Agreement,
the Intel FPGA IP License Agreement, or other applicable license
agreement, including, without limitation, that your use is for
the sole purpose of programming logic devices manufactured by
Intel and sold by Intel or its authorized distributors.  Please
refer to the applicable agreement for further details, at
https://fpgasoftware.intel.com/eula.
*/
(header "graphic" (version "1.4"))
(pin
	(input)
	(rect 288 144 456 160)
	(text "INPUT" (rect 125 0 153 10)(font "Arial" (font_size 6)))
	(text "B" (rect 5 0 14 11)(font "Arial" ))
	(pt 168 8)
	(drawing
		(line (pt 84 12)(pt 109 12))
		(line (pt 84 4)(pt 109 4))
		(line (pt 113 8)(pt 168 8))
		(line (pt 84 12)(pt 84 4))
		(line (pt 109 4)(pt 113 8))
		(line (pt 109 12)(pt 113 8))
	)
	(text "VCC" (rect 128 7 148 17)(font "Arial" (font_size 6)))
)
(pin
	(input)
	(rect 288 176 456 192)
	(text "INPUT" (rect 125 0 153 10)(font "Arial" (font_size 6)))
	(text "A" (rect 5 0 14 13)(font "Intel Clear" ))
	(pt 168 8)
	(drawing
		(line (pt 84 12)(pt 109 12))
		(line (pt 84 4)(pt 109 4))
		(line (pt 113 8)(pt 168 8))
		(line (pt 84 12)(pt 84 4))
		(line (pt 109 4)(pt 113 8))
		(line (pt 109 12)(pt 113 8))
	)
	(text "VCC" (rect 128 7 148 17)(font "Arial" (font_size 6)))
)
(pin
	(input)
	(rect 288 208 456 224)
	(text "INPUT" (rect 125 0 153 10)(font "Arial" (font_size 6)))
	(text "Te" (rect 5 0 18 13)(font "Intel Clear" ))
	(pt 168 8)
	(drawing
		(line (pt 84 12)(pt 109 12))
		(line (pt 84 4)(pt 109 4))
		(line (pt 113 8)(pt 168 8))
		(line (pt 84 12)(pt 84 4))
		(line (pt 109 4)(pt 113 8))
		(line (pt 109 12)(pt 113 8))
	)
	(text "VCC" (rect 128 7 148 17)(font "Arial" (font_size 6)))
)
(pin
	(output)
	(rect 832 192 1008 208)
	(text "OUTPUT" (rect 1 0 39 10)(font "Arial" (font_size 6)))
	(text "S" (rect 90 0 98 11)(font "Arial" ))
	(pt 0 8)
	(drawing
		(line (pt 0 8)(pt 52 8))
		(line (pt 52 4)(pt 78 4))
		(line (pt 52 12)(pt 78 12))
		(line (pt 52 12)(pt 52 4))
		(line (pt 78 4)(pt 82 8))
		(line (pt 82 8)(pt 78 12))
		(line (pt 78 12)(pt 82 8))
	)
)
(pin
	(output)
	(rect 832 360 1008 376)
	(text "OUTPUT" (rect 1 0 39 10)(font "Arial" (font_size 6)))
	(text "Ts" (rect 90 0 102 11)(font "Arial" ))
	(pt 0 8)
	(drawing
		(line (pt 0 8)(pt 52 8))
		(line (pt 52 4)(pt 78 4))
		(line (pt 52 12)(pt 78 12))
		(line (pt 52 12)(pt 52 4))
		(line (pt 78 4)(pt 82 8))
		(line (pt 82 8)(pt 78 12))
		(line (pt 78 12)(pt 82 8))
	)
)
(symbol
	(rect 528 152 592 200)
	(text "XOR" (rect 1 0 22 10)(font "Arial" (font_size 6)))
	(text "inst" (rect 3 37 20 48)(font "Arial" ))
	(port
		(pt 0 16)
		(input)
		(text "IN1" (rect 2 7 22 18)(font "Courier New" (bold))(invisible))
		(text "IN1" (rect 2 7 22 18)(font "Courier New" (bold))(invisible))
		(line (pt 0 16)(pt 11 16))
	)
	(port
		(pt 0 32)
		(input)
		(text "IN2" (rect 2 23 22 34)(font "Courier New" (bold))(invisible))
		(text "IN2" (rect 2 23 22 34)(font "Courier New" (bold))(invisible))
		(line (pt 0 32)(pt 11 32))
	)
	(port
		(pt 64 24)
		(output)
		(text "OUT" (rect 48 15 68 26)(font "Courier New" (bold))(invisible))
		(text "OUT" (rect 48 15 68 26)(font "Courier New" (bold))(invisible))
		(line (pt 49 24)(pt 64 24))
	)
	(drawing
		(line (pt 14 13)(pt 25 13))
		(line (pt 14 36)(pt 25 36))
		(arc (pt 7 29)(pt 7 19)(rect -14 8 19 41))
		(arc (pt 49 24)(pt 25 13)(rect -6 13 57 76))
		(arc (pt 25 35)(pt 49 24)(rect -6 -27 57 36))
		(arc (pt 8 36)(pt 8 12)(rect -21 7 14 42))
	)
)
(symbol
	(rect 560 296 624 344)
	(text "OR2" (rect 1 0 22 10)(font "Arial" (font_size 6)))
	(text "inst2" (rect 3 37 27 50)(font "Intel Clear" ))
	(port
		(pt 0 32)
		(input)
		(text "IN2" (rect 2 23 22 34)(font "Courier New" (bold))(invisible))
		(text "IN2" (rect 2 23 22 34)(font "Courier New" (bold))(invisible))
		(line (pt 0 32)(pt 15 32))
	)
	(port
		(pt 0 16)
		(input)
		(text "IN1" (rect 2 7 22 18)(font "Courier New" (bold))(invisible))
		(text "IN1" (rect 2 7 22 18)(font "Courier New" (bold))(invisible))
		(line (pt 0 16)(pt 15 16))
	)
	(port
		(pt 64 24)
		(output)
		(text "OUT" (rect 48 15 68 26)(font "Courier New" (bold))(invisible))
		(text "OUT" (rect 48 15 68 26)(font "Courier New" (bold))(invisible))
		(line (pt 48 24)(pt 64 24))
	)
	(drawing
		(line (pt 14 36)(pt 25 36))
		(line (pt 14 13)(pt 25 13))
		(arc (pt 7 29)(pt 7 19)(rect -14 8 19 41))
		(arc (pt 49 24)(pt 25 13)(rect -6 13 57 76))
		(arc (pt 25 35)(pt 49 24)(rect -6 -27 57 36))
	)
)
(symbol
	(rect 656 320 720 368)
	(text "AND2" (rect 1 0 28 10)(font "Arial" (font_size 6)))
	(text "inst3" (rect 3 37 27 50)(font "Intel Clear" ))
	(port
		(pt 0 16)
		(input)
		(text "IN1" (rect 2 7 22 18)(font "Courier New" (bold))(invisible))
		(text "IN1" (rect 2 7 22 18)(font "Courier New" (bold))(invisible))
		(line (pt 0 16)(pt 14 16))
	)
	(port
		(pt 0 32)
		(input)
		(text "IN2" (rect 2 23 22 34)(font "Courier New" (bold))(invisible))
		(text "IN2" (rect 2 23 22 34)(font "Courier New" (bold))(invisible))
		(line (pt 0 32)(pt 14 32))
	)
	(port
		(pt 64 24)
		(output)
		(text "OUT" (rect 48 15 68 26)(font "Courier New" (bold))(invisible))
		(text "OUT" (rect 48 15 68 26)(font "Courier New" (bold))(invisible))
		(line (pt 42 24)(pt 64 24))
	)
	(drawing
		(line (pt 14 12)(pt 30 12))
		(line (pt 14 37)(pt 31 37))
		(line (pt 14 12)(pt 14 37))
		(arc (pt 31 37)(pt 30 12)(rect 18 12 43 37))
	)
)
(symbol
	(rect 560 368 624 416)
	(text "AND2" (rect 1 0 28 10)(font "Arial" (font_size 6)))
	(text "inst4" (rect 3 37 27 50)(font "Intel Clear" ))
	(port
		(pt 0 16)
		(input)
		(text "IN1" (rect 2 7 22 18)(font "Courier New" (bold))(invisible))
		(text "IN1" (rect 2 7 22 18)(font "Courier New" (bold))(invisible))
		(line (pt 0 16)(pt 14 16))
	)
	(port
		(pt 0 32)
		(input)
		(text "IN2" (rect 2 23 22 34)(font "Courier New" (bold))(invisible))
		(text "IN2" (rect 2 23 22 34)(font "Courier New" (bold))(invisible))
		(line (pt 0 32)(pt 14 32))
	)
	(port
		(pt 64 24)
		(output)
		(text "OUT" (rect 48 15 68 26)(font "Courier New" (bold))(invisible))
		(text "OUT" (rect 48 15 68 26)(font "Courier New" (bold))(invisible))
		(line (pt 42 24)(pt 64 24))
	)
	(drawing
		(line (pt 14 12)(pt 30 12))
		(line (pt 14 37)(pt 31 37))
		(line (pt 14 12)(pt 14 37))
		(arc (pt 31 37)(pt 30 12)(rect 18 12 43 37))
	)
)
(symbol
	(rect 744 344 808 392)
	(text "OR2" (rect 1 0 22 10)(font "Arial" (font_size 6)))
	(text "inst5" (rect 3 37 27 50)(font "Intel Clear" ))
	(port
		(pt 0 32)
		(input)
		(text "IN2" (rect 2 23 22 34)(font "Courier New" (bold))(invisible))
		(text "IN2" (rect 2 23 22 34)(font "Courier New" (bold))(invisible))
		(line (pt 0 32)(pt 15 32))
	)
	(port
		(pt 0 16)
		(input)
		(text "IN1" (rect 2 7 22 18)(font "Courier New" (bold))(invisible))
		(text "IN1" (rect 2 7 22 18)(font "Courier New" (bold))(invisible))
		(line (pt 0 16)(pt 15 16))
	)
	(port
		(pt 64 24)
		(output)
		(text "OUT" (rect 48 15 68 26)(font "Courier New" (bold))(invisible))
		(text "OUT" (rect 48 15 68 26)(font "Courier New" (bold))(invisible))
		(line (pt 48 24)(pt 64 24))
	)
	(drawing
		(line (pt 14 36)(pt 25 36))
		(line (pt 14 13)(pt 25 13))
		(arc (pt 7 29)(pt 7 19)(rect -14 8 19 41))
		(arc (pt 49 24)(pt 25 13)(rect -6 13 57 76))
		(arc (pt 25 35)(pt 49 24)(rect -6 -27 57 36))
	)
)
(symbol
	(rect 504 384 552 416)
	(text "NOT" (rect 1 0 21 10)(font "Arial" (font_size 6)))
	(text "inst6" (rect 3 21 27 34)(font "Intel Clear" ))
	(port
		(pt 0 16)
		(input)
		(text "IN" (rect 2 7 16 18)(font "Courier New" (bold))(invisible))
		(text "IN" (rect 2 7 16 18)(font "Courier New" (bold))(invisible))
		(line (pt 0 16)(pt 13 16))
	)
	(port
		(pt 48 16)
		(output)
		(text "OUT" (rect 32 7 52 18)(font "Courier New" (bold))(invisible))
		(text "OUT" (rect 32 7 52 18)(font "Courier New" (bold))(invisible))
		(line (pt 39 16)(pt 48 16))
	)
	(drawing
		(line (pt 13 25)(pt 13 7))
		(line (pt 13 7)(pt 31 16))
		(line (pt 13 25)(pt 31 16))
		(circle (rect 31 12 39 20))
	)
)
(symbol
	(rect 504 312 552 344)
	(text "NOT" (rect 1 0 21 10)(font "Arial" (font_size 6)))
	(text "inst7" (rect 3 21 27 34)(font "Intel Clear" ))
	(port
		(pt 0 16)
		(input)
		(text "IN" (rect 2 7 16 18)(font "Courier New" (bold))(invisible))
		(text "IN" (rect 2 7 16 18)(font "Courier New" (bold))(invisible))
		(line (pt 0 16)(pt 13 16))
	)
	(port
		(pt 48 16)
		(output)
		(text "OUT" (rect 32 7 52 18)(font "Courier New" (bold))(invisible))
		(text "OUT" (rect 32 7 52 18)(font "Courier New" (bold))(invisible))
		(line (pt 39 16)(pt 48 16))
	)
	(drawing
		(line (pt 13 25)(pt 13 7))
		(line (pt 13 7)(pt 31 16))
		(line (pt 13 25)(pt 31 16))
		(circle (rect 31 12 39 20))
	)
)
(symbol
	(rect 664 176 728 224)
	(text "XOR" (rect 1 0 22 10)(font "Arial" (font_size 6)))
	(text "inst8" (rect 3 37 27 50)(font "Intel Clear" ))
	(port
		(pt 0 16)
		(input)
		(text "IN1" (rect 2 7 22 18)(font "Courier New" (bold))(invisible))
		(text "IN1" (rect 2 7 22 18)(font "Courier New" (bold))(invisible))
		(line (pt 0 16)(pt 11 16))
	)
	(port
		(pt 0 32)
		(input)
		(text "IN2" (rect 2 23 22 34)(font "Courier New" (bold))(invisible))
		(text "IN2" (rect 2 23 22 34)(font "Courier New" (bold))(invisible))
		(line (pt 0 32)(pt 11 32))
	)
	(port
		(pt 64 24)
		(output)
		(text "OUT" (rect 48 15 68 26)(font "Courier New" (bold))(invisible))
		(text "OUT" (rect 48 15 68 26)(font "Courier New" (bold))(invisible))
		(line (pt 49 24)(pt 64 24))
	)
	(drawing
		(line (pt 14 13)(pt 25 13))
		(line (pt 14 36)(pt 25 36))
		(arc (pt 7 29)(pt 7 19)(rect -14 8 19 41))
		(arc (pt 49 24)(pt 25 13)(rect -6 13 57 76))
		(arc (pt 25 35)(pt 49 24)(rect -6 -27 57 36))
		(arc (pt 8 36)(pt 8 12)(rect -21 7 14 42))
	)
)
(connector
	(pt 496 168)
	(pt 528 168)
)
(connector
	(pt 456 152)
	(pt 496 152)
)
(connector
	(pt 624 320)
	(pt 640 320)
)
(connector
	(pt 640 320)
	(pt 640 336)
)
(connector
	(pt 736 360)
	(pt 736 344)
)
(connector
	(pt 720 344)
	(pt 736 344)
)
(connector
	(pt 648 376)
	(pt 648 392)
)
(connector
	(pt 624 392)
	(pt 648 392)
)
(connector
	(pt 744 360)
	(pt 736 360)
)
(connector
	(pt 744 376)
	(pt 648 376)
)
(connector
	(pt 496 312)
	(pt 560 312)
)
(connector
	(pt 640 336)
	(pt 656 336)
)
(connector
	(pt 464 352)
	(pt 656 352)
)
(connector
	(pt 496 384)
	(pt 560 384)
)
(connector
	(pt 504 400)
	(pt 480 400)
)
(connector
	(pt 560 400)
	(pt 552 400)
)
(connector
	(pt 504 328)
	(pt 480 328)
)
(connector
	(pt 560 328)
	(pt 552 328)
)
(connector
	(pt 808 368)
	(pt 832 368)
)
(connector
	(pt 456 184)
	(pt 480 184)
)
(connector
	(pt 480 184)
	(pt 528 184)
)
(connector
	(pt 480 184)
	(pt 480 328)
)
(connector
	(pt 480 328)
	(pt 480 400)
)
(connector
	(pt 496 152)
	(pt 496 168)
)
(connector
	(pt 496 168)
	(pt 496 312)
)
(connector
	(pt 496 312)
	(pt 496 384)
)
(connector
	(pt 592 176)
	(pt 608 176)
)
(connector
	(pt 608 176)
	(pt 608 192)
)
(connector
	(pt 464 216)
	(pt 464 352)
)
(connector
	(pt 664 208)
	(pt 608 208)
)
(connector
	(pt 608 208)
	(pt 608 216)
)
(connector
	(pt 456 216)
	(pt 464 216)
)
(connector
	(pt 464 216)
	(pt 608 216)
)
(connector
	(pt 664 192)
	(pt 608 192)
)
(connector
	(pt 728 200)
	(pt 832 200)
)
(junction (pt 480 184))
(junction (pt 496 168))
(junction (pt 480 328))
(junction (pt 496 312))
(junction (pt 464 216))
