|aula-02-simplificacao-de-expressao-logica
Q1 <= inst6.DB_MAX_OUTPUT_PORT_TYPE
C => inst3.IN0
C => inst4.IN1
C => inst11.IN1
B => inst3.IN1
B => inst4.IN0
B => inst.IN1
B => inst11.IN0
B => inst10.IN1
A => inst.IN0
A => inst10.IN0
Q2 <= inst12.DB_MAX_OUTPUT_PORT_TYPE


