/*
WARNING: Do NOT edit the input and output ports in this file in a text
editor if you plan to continue editing the block that represents it in
the Block Editor! File corruption is VERY likely to occur.
*/
/*
Copyright (C) 2020  Intel Corporation. All rights reserved.
Your use of Intel Corporation's design tools, logic functions 
and other software and tools, and any partner logic 
functions, and any output files from any of the foregoing 
(including device programming or simulation files), and any 
associated documentation or information are expressly subject 
to the terms and conditions of the Intel Program License 
Subscription Agreement, the Intel Quartus Prime License Agreement,
the Intel FPGA IP License Agreement, or other applicable license
agreement, including, without limitation, that your use is for
the sole purpose of programming logic devices manufactured by
Intel and sold by Intel or its authorized distributors.  Please
refer to the applicable agreement for further details, at
https://fpgasoftware.intel.com/eula.
*/
(header "graphic" (version "1.4"))
(pin
	(input)
	(rect 128 96 296 112)
	(text "INPUT" (rect 125 0 153 10)(font "Arial" (font_size 6)))
	(text "A4" (rect 5 0 20 11)(font "Arial" ))
	(pt 168 8)
	(drawing
		(line (pt 84 12)(pt 109 12))
		(line (pt 84 4)(pt 109 4))
		(line (pt 113 8)(pt 168 8))
		(line (pt 84 12)(pt 84 4))
		(line (pt 109 4)(pt 113 8))
		(line (pt 109 12)(pt 113 8))
	)
	(text "VCC" (rect 128 7 148 17)(font "Arial" (font_size 6)))
)
(pin
	(input)
	(rect 128 120 296 136)
	(text "INPUT" (rect 125 0 153 10)(font "Arial" (font_size 6)))
	(text "B4" (rect 5 0 20 13)(font "Intel Clear" ))
	(pt 168 8)
	(drawing
		(line (pt 84 12)(pt 109 12))
		(line (pt 84 4)(pt 109 4))
		(line (pt 113 8)(pt 168 8))
		(line (pt 84 12)(pt 84 4))
		(line (pt 109 4)(pt 113 8))
		(line (pt 109 12)(pt 113 8))
	)
	(text "VCC" (rect 128 7 148 17)(font "Arial" (font_size 6)))
)
(pin
	(input)
	(rect 128 224 296 240)
	(text "INPUT" (rect 125 0 153 10)(font "Arial" (font_size 6)))
	(text "A3" (rect 5 0 20 13)(font "Intel Clear" ))
	(pt 168 8)
	(drawing
		(line (pt 84 12)(pt 109 12))
		(line (pt 84 4)(pt 109 4))
		(line (pt 113 8)(pt 168 8))
		(line (pt 84 12)(pt 84 4))
		(line (pt 109 4)(pt 113 8))
		(line (pt 109 12)(pt 113 8))
	)
	(text "VCC" (rect 128 7 148 17)(font "Arial" (font_size 6)))
)
(pin
	(input)
	(rect 128 248 296 264)
	(text "INPUT" (rect 125 0 153 10)(font "Arial" (font_size 6)))
	(text "B3" (rect 5 0 20 13)(font "Intel Clear" ))
	(pt 168 8)
	(drawing
		(line (pt 84 12)(pt 109 12))
		(line (pt 84 4)(pt 109 4))
		(line (pt 113 8)(pt 168 8))
		(line (pt 84 12)(pt 84 4))
		(line (pt 109 4)(pt 113 8))
		(line (pt 109 12)(pt 113 8))
	)
	(text "VCC" (rect 128 7 148 17)(font "Arial" (font_size 6)))
)
(pin
	(input)
	(rect 128 336 296 352)
	(text "INPUT" (rect 125 0 153 10)(font "Arial" (font_size 6)))
	(text "A2" (rect 5 0 20 13)(font "Intel Clear" ))
	(pt 168 8)
	(drawing
		(line (pt 84 12)(pt 109 12))
		(line (pt 84 4)(pt 109 4))
		(line (pt 113 8)(pt 168 8))
		(line (pt 84 12)(pt 84 4))
		(line (pt 109 4)(pt 113 8))
		(line (pt 109 12)(pt 113 8))
	)
	(text "VCC" (rect 128 7 148 17)(font "Arial" (font_size 6)))
)
(pin
	(input)
	(rect 128 360 296 376)
	(text "INPUT" (rect 125 0 153 10)(font "Arial" (font_size 6)))
	(text "B2" (rect 5 0 20 13)(font "Intel Clear" ))
	(pt 168 8)
	(drawing
		(line (pt 84 12)(pt 109 12))
		(line (pt 84 4)(pt 109 4))
		(line (pt 113 8)(pt 168 8))
		(line (pt 84 12)(pt 84 4))
		(line (pt 109 4)(pt 113 8))
		(line (pt 109 12)(pt 113 8))
	)
	(text "VCC" (rect 128 7 148 17)(font "Arial" (font_size 6)))
)
(pin
	(input)
	(rect 128 448 296 464)
	(text "INPUT" (rect 125 0 153 10)(font "Arial" (font_size 6)))
	(text "A1" (rect 5 0 20 13)(font "Intel Clear" ))
	(pt 168 8)
	(drawing
		(line (pt 84 12)(pt 109 12))
		(line (pt 84 4)(pt 109 4))
		(line (pt 113 8)(pt 168 8))
		(line (pt 84 12)(pt 84 4))
		(line (pt 109 4)(pt 113 8))
		(line (pt 109 12)(pt 113 8))
	)
	(text "VCC" (rect 128 7 148 17)(font "Arial" (font_size 6)))
)
(pin
	(input)
	(rect 128 472 296 488)
	(text "INPUT" (rect 125 0 153 10)(font "Arial" (font_size 6)))
	(text "B1" (rect 5 0 20 13)(font "Intel Clear" ))
	(pt 168 8)
	(drawing
		(line (pt 84 12)(pt 109 12))
		(line (pt 84 4)(pt 109 4))
		(line (pt 113 8)(pt 168 8))
		(line (pt 84 12)(pt 84 4))
		(line (pt 109 4)(pt 113 8))
		(line (pt 109 12)(pt 113 8))
	)
	(text "VCC" (rect 128 7 148 17)(font "Arial" (font_size 6)))
)
(pin
	(output)
	(rect 480 496 656 512)
	(text "OUTPUT" (rect 1 0 39 10)(font "Arial" (font_size 6)))
	(text "Cout" (rect 90 0 113 11)(font "Arial" ))
	(pt 0 8)
	(drawing
		(line (pt 0 8)(pt 52 8))
		(line (pt 52 4)(pt 78 4))
		(line (pt 52 12)(pt 78 12))
		(line (pt 52 12)(pt 52 4))
		(line (pt 78 4)(pt 82 8))
		(line (pt 82 8)(pt 78 12))
		(line (pt 78 12)(pt 82 8))
	)
)
(pin
	(output)
	(rect 480 96 656 112)
	(text "OUTPUT" (rect 1 0 39 10)(font "Arial" (font_size 6)))
	(text "S4" (rect 90 0 104 11)(font "Arial" ))
	(pt 0 8)
	(drawing
		(line (pt 0 8)(pt 52 8))
		(line (pt 52 4)(pt 78 4))
		(line (pt 52 12)(pt 78 12))
		(line (pt 52 12)(pt 52 4))
		(line (pt 78 4)(pt 82 8))
		(line (pt 82 8)(pt 78 12))
		(line (pt 78 12)(pt 82 8))
	)
)
(pin
	(output)
	(rect 480 208 656 224)
	(text "OUTPUT" (rect 1 0 39 10)(font "Arial" (font_size 6)))
	(text "S3" (rect 90 0 104 13)(font "Intel Clear" ))
	(pt 0 8)
	(drawing
		(line (pt 0 8)(pt 52 8))
		(line (pt 52 4)(pt 78 4))
		(line (pt 52 12)(pt 78 12))
		(line (pt 52 12)(pt 52 4))
		(line (pt 78 4)(pt 82 8))
		(line (pt 82 8)(pt 78 12))
		(line (pt 78 12)(pt 82 8))
	)
)
(pin
	(output)
	(rect 480 320 656 336)
	(text "OUTPUT" (rect 1 0 39 10)(font "Arial" (font_size 6)))
	(text "S2" (rect 90 0 104 13)(font "Intel Clear" ))
	(pt 0 8)
	(drawing
		(line (pt 0 8)(pt 52 8))
		(line (pt 52 4)(pt 78 4))
		(line (pt 52 12)(pt 78 12))
		(line (pt 52 12)(pt 52 4))
		(line (pt 78 4)(pt 82 8))
		(line (pt 82 8)(pt 78 12))
		(line (pt 78 12)(pt 82 8))
	)
)
(pin
	(output)
	(rect 480 432 656 448)
	(text "OUTPUT" (rect 1 0 39 10)(font "Arial" (font_size 6)))
	(text "S1" (rect 90 0 104 11)(font "Arial" ))
	(pt 0 8)
	(drawing
		(line (pt 0 8)(pt 52 8))
		(line (pt 52 4)(pt 78 4))
		(line (pt 52 12)(pt 78 12))
		(line (pt 52 12)(pt 52 4))
		(line (pt 78 4)(pt 82 8))
		(line (pt 82 8)(pt 78 12))
		(line (pt 78 12)(pt 82 8))
	)
)
(symbol
	(rect 344 184 440 280)
	(text "somador-completo" (rect 5 0 115 15)(font "Intel Clear" (font_size 8)))
	(text "inst2" (rect 8 79 32 92)(font "Intel Clear" ))
	(port
		(pt 0 32)
		(input)
		(text "Cin" (rect 0 0 18 15)(font "Intel Clear" (font_size 8)))
		(text "Cin" (rect 21 27 39 42)(font "Intel Clear" (font_size 8)))
		(line (pt 0 32)(pt 16 32))
	)
	(port
		(pt 0 48)
		(input)
		(text "A" (rect 0 0 8 15)(font "Intel Clear" (font_size 8)))
		(text "A" (rect 21 43 29 58)(font "Intel Clear" (font_size 8)))
		(line (pt 0 48)(pt 16 48))
	)
	(port
		(pt 0 64)
		(input)
		(text "B" (rect 0 0 8 15)(font "Intel Clear" (font_size 8)))
		(text "B" (rect 21 59 29 74)(font "Intel Clear" (font_size 8)))
		(line (pt 0 64)(pt 16 64))
	)
	(port
		(pt 96 32)
		(output)
		(text "S" (rect 0 0 8 15)(font "Intel Clear" (font_size 8)))
		(text "S" (rect 67 27 75 42)(font "Intel Clear" (font_size 8)))
		(line (pt 96 32)(pt 80 32))
	)
	(port
		(pt 96 48)
		(output)
		(text "Cout" (rect 0 0 27 15)(font "Intel Clear" (font_size 8)))
		(text "Cout" (rect 48 43 75 58)(font "Intel Clear" (font_size 8)))
		(line (pt 96 48)(pt 80 48))
	)
	(drawing
		(rectangle (rect 16 16 80 80))
	)
)
(symbol
	(rect 344 296 440 392)
	(text "somador-completo" (rect 5 0 115 15)(font "Intel Clear" (font_size 8)))
	(text "inst3" (rect 8 79 32 92)(font "Intel Clear" ))
	(port
		(pt 0 32)
		(input)
		(text "Cin" (rect 0 0 18 15)(font "Intel Clear" (font_size 8)))
		(text "Cin" (rect 21 27 39 42)(font "Intel Clear" (font_size 8)))
		(line (pt 0 32)(pt 16 32))
	)
	(port
		(pt 0 48)
		(input)
		(text "A" (rect 0 0 8 15)(font "Intel Clear" (font_size 8)))
		(text "A" (rect 21 43 29 58)(font "Intel Clear" (font_size 8)))
		(line (pt 0 48)(pt 16 48))
	)
	(port
		(pt 0 64)
		(input)
		(text "B" (rect 0 0 8 15)(font "Intel Clear" (font_size 8)))
		(text "B" (rect 21 59 29 74)(font "Intel Clear" (font_size 8)))
		(line (pt 0 64)(pt 16 64))
	)
	(port
		(pt 96 32)
		(output)
		(text "S" (rect 0 0 8 15)(font "Intel Clear" (font_size 8)))
		(text "S" (rect 67 27 75 42)(font "Intel Clear" (font_size 8)))
		(line (pt 96 32)(pt 80 32))
	)
	(port
		(pt 96 48)
		(output)
		(text "Cout" (rect 0 0 27 15)(font "Intel Clear" (font_size 8)))
		(text "Cout" (rect 48 43 75 58)(font "Intel Clear" (font_size 8)))
		(line (pt 96 48)(pt 80 48))
	)
	(drawing
		(rectangle (rect 16 16 80 80))
	)
)
(symbol
	(rect 344 408 440 504)
	(text "somador-completo" (rect 5 0 115 15)(font "Intel Clear" (font_size 8)))
	(text "inst4" (rect 8 79 32 92)(font "Intel Clear" ))
	(port
		(pt 0 32)
		(input)
		(text "Cin" (rect 0 0 18 15)(font "Intel Clear" (font_size 8)))
		(text "Cin" (rect 21 27 39 42)(font "Intel Clear" (font_size 8)))
		(line (pt 0 32)(pt 16 32))
	)
	(port
		(pt 0 48)
		(input)
		(text "A" (rect 0 0 8 15)(font "Intel Clear" (font_size 8)))
		(text "A" (rect 21 43 29 58)(font "Intel Clear" (font_size 8)))
		(line (pt 0 48)(pt 16 48))
	)
	(port
		(pt 0 64)
		(input)
		(text "B" (rect 0 0 8 15)(font "Intel Clear" (font_size 8)))
		(text "B" (rect 21 59 29 74)(font "Intel Clear" (font_size 8)))
		(line (pt 0 64)(pt 16 64))
	)
	(port
		(pt 96 32)
		(output)
		(text "S" (rect 0 0 8 15)(font "Intel Clear" (font_size 8)))
		(text "S" (rect 67 27 75 42)(font "Intel Clear" (font_size 8)))
		(line (pt 96 32)(pt 80 32))
	)
	(port
		(pt 96 48)
		(output)
		(text "Cout" (rect 0 0 27 15)(font "Intel Clear" (font_size 8)))
		(text "Cout" (rect 48 43 75 58)(font "Intel Clear" (font_size 8)))
		(line (pt 96 48)(pt 80 48))
	)
	(drawing
		(rectangle (rect 16 16 80 80))
	)
)
(symbol
	(rect 344 72 440 168)
	(text "meio-somador" (rect 5 0 89 15)(font "Intel Clear" (font_size 8)))
	(text "inst6" (rect 8 79 32 92)(font "Intel Clear" ))
	(port
		(pt 0 32)
		(input)
		(text "A" (rect 0 0 8 15)(font "Intel Clear" (font_size 8)))
		(text "A" (rect 21 27 29 42)(font "Intel Clear" (font_size 8)))
		(line (pt 0 32)(pt 16 32))
	)
	(port
		(pt 0 48)
		(input)
		(text "B" (rect 0 0 8 15)(font "Intel Clear" (font_size 8)))
		(text "B" (rect 21 43 29 58)(font "Intel Clear" (font_size 8)))
		(line (pt 0 48)(pt 16 48))
	)
	(port
		(pt 96 32)
		(output)
		(text "S" (rect 0 0 8 15)(font "Intel Clear" (font_size 8)))
		(text "S" (rect 67 27 75 42)(font "Intel Clear" (font_size 8)))
		(line (pt 96 32)(pt 80 32))
	)
	(port
		(pt 96 48)
		(output)
		(text "Cout" (rect 0 0 27 15)(font "Intel Clear" (font_size 8)))
		(text "Cout" (rect 48 43 75 58)(font "Intel Clear" (font_size 8)))
		(line (pt 96 48)(pt 80 48))
	)
	(drawing
		(rectangle (rect 16 16 80 80))
	)
)
(connector
	(pt 344 232)
	(pt 296 232)
)
(connector
	(pt 344 248)
	(pt 320 248)
)
(connector
	(pt 320 248)
	(pt 320 256)
)
(connector
	(pt 320 256)
	(pt 296 256)
)
(connector
	(pt 344 344)
	(pt 296 344)
)
(connector
	(pt 344 360)
	(pt 320 360)
)
(connector
	(pt 320 360)
	(pt 320 368)
)
(connector
	(pt 320 368)
	(pt 296 368)
)
(connector
	(pt 344 456)
	(pt 296 456)
)
(connector
	(pt 344 472)
	(pt 320 472)
)
(connector
	(pt 320 472)
	(pt 320 480)
)
(connector
	(pt 320 480)
	(pt 296 480)
)
(connector
	(pt 440 120)
	(pt 448 120)
)
(connector
	(pt 448 120)
	(pt 448 176)
)
(connector
	(pt 448 176)
	(pt 336 176)
)
(connector
	(pt 336 176)
	(pt 336 216)
)
(connector
	(pt 336 216)
	(pt 344 216)
)
(connector
	(pt 440 232)
	(pt 448 232)
)
(connector
	(pt 448 232)
	(pt 448 288)
)
(connector
	(pt 448 288)
	(pt 336 288)
)
(connector
	(pt 336 288)
	(pt 336 328)
)
(connector
	(pt 336 328)
	(pt 344 328)
)
(connector
	(pt 440 344)
	(pt 448 344)
)
(connector
	(pt 448 344)
	(pt 448 400)
)
(connector
	(pt 448 400)
	(pt 336 400)
)
(connector
	(pt 336 400)
	(pt 336 440)
)
(connector
	(pt 336 440)
	(pt 344 440)
)
(connector
	(pt 440 104)
	(pt 480 104)
)
(connector
	(pt 440 216)
	(pt 480 216)
)
(connector
	(pt 440 328)
	(pt 480 328)
)
(connector
	(pt 440 440)
	(pt 480 440)
)
(connector
	(pt 440 456)
	(pt 456 456)
)
(connector
	(pt 456 456)
	(pt 456 504)
)
(connector
	(pt 456 504)
	(pt 480 504)
)
(connector
	(pt 320 120)
	(pt 320 128)
)
(connector
	(pt 320 128)
	(pt 296 128)
)
(connector
	(pt 344 104)
	(pt 296 104)
)
(connector
	(pt 344 120)
	(pt 320 120)
)
